{
  "images" : [
    {
      "idiom" : "universal",
      "filename" : "logo1.png",
      "scale" : "1x"
    },
    {
      "idiom" : "universal",
      "scale" : "2x",
	"filename" : "logo1@2x.png",
      
    },
    {
      "idiom" : "universal",
      "scale" : "3x",
	"filename" : "logo1@2x.png",
      
    }
  ],
  "info" : {
    "version" : 1,
    "author" : "xcode"
  }
}